<svg  version="1.1" xmlns="http://www.w3.org/2000/svg" xmlns:xlink="http://www.w3.org/1999/xlink" >
    <defs>
	<g id="balon">
		<path d="M25.9,1.6c-0.1,0-0.2-0.1-0.3-0.1C24.1,1.2,22.6,1,21,1C10,1,1,10,1,21c0,11,9,20,20,20c11,0,20-9,20-20
		C41,11.7,34.6,3.8,25.9,1.6z M35.6,30.1l-6.1,0.8c-0.3,0-0.5,0.1-0.7,0.3l-4.6,4.1c-0.3,0.2-0.4,0.6-0.4,0.9c0,0.4,0.1,0.7,0.4,1
		l0.7,0.7c-1.3,0.3-2.6,0.5-3.9,0.5c-1.4,0-2.7-0.2-4-0.5l0.7-0.7c0.3-0.3,0.4-0.6,0.4-1c0-0.4-0.2-0.7-0.4-0.9l-4.6-4.1
		c-0.2-0.2-0.4-0.3-0.7-0.3l-6.1-0.8c-0.1,0-0.1,0-0.2,0c-0.9-1.5-1.6-3.2-2.1-4.9L5.9,25c0.5,0,1-0.4,1.2-0.9l1.9-6
		c0.1-0.3,0.1-0.5,0-0.8l-1.9-6c0-0.1-0.1-0.2-0.2-0.3c1.7-2.4,4.1-4.4,6.9-5.7c0,0,0,0.1,0,0.1c0.1,0.4,0.4,0.7,0.9,0.8l6,1.9
		c0.1,0,0.3,0.1,0.4,0.1c0.1,0,0.3,0,0.4-0.1l6-1.9c0.4-0.1,0.7-0.4,0.9-0.9c0,0,0,0,0-0.1c2.8,1.3,5.2,3.3,7,5.9
		c0,0.1-0.1,0.1-0.1,0.2l-1.9,6c-0.1,0.3-0.1,0.5,0,0.8l1.9,6c0.1,0.5,0.5,0.8,1,0.9l1.6,0.3c-0.4,1.7-1.1,3.3-2,4.8
		C35.7,30.1,35.7,30.1,35.6,30.1z M21.8,11.4c-0.5-0.3-1.1-0.3-1.5,0l-6.9,5c-0.5,0.3-0.7,0.9-0.5,1.5l2.6,8.1c0.2,0.5,0.7,0.9,1.2,0.9h8.5
		c0.6,0,1.1-0.4,1.2-0.9l2.6-8.1c0.2-0.5,0-1.1-0.5-1.5L21.8,11.4z"/>
	</g>
	<g id="lineas">
		<path d="M14.1,2.6L2.6,14.1c-0.4,0.4-1.1,0.4-1.5,0l-0.7-0.7c-0.4-0.4-0.4-1.1,0-1.5L12,0.5c0.4-0.4,1.1-0.4,1.5,0
		l0.7,0.7C14.5,1.6,14.5,2.2,14.1,2.6z M23.5,12L12,23.5c-0.4,0.4-1.1,0.4-1.5,0l-0.7-0.7c-0.4-0.4-0.4-1.1,0-1.5L21.4,9.9c0.4-0.4,1.1-0.4,1.5,0
		l0.7,0.7C23.9,11,23.9,11.6,23.5,12z M18.8,7.3L2.6,23.5c-0.4,0.4-1.1,0.4-1.5,0l-0.7-0.7c-0.4-0.4-0.4-1.1,0-1.5L16.7,5.2c0.4-0.4,1.1-0.4,1.5,0
		l0.7,0.7C19.2,6.3,19.2,6.9,18.8,7.3z"/>
		<path d="M23.5,12L12,23.5c-0.4,0.4-1.1,0.4-1.5,0l-0.7-0.7c-0.4-0.4-0.4-1.1,0-1.5L21.4,9.9c0.4-0.4,1.1-0.4,1.5,0
			l0.7,0.7C23.9,11,23.9,11.6,23.5,12z"/>
		<path d="M18.8,7.3L2.6,23.5c-0.4,0.4-1.1,0.4-1.5,0l-0.7-0.7c-0.4-0.4-0.4-1.1,0-1.5L16.7,5.2c0.4-0.4,1.1-0.4,1.5,0
			l0.7,0.7C19.2,6.3,19.2,6.9,18.8,7.3z"/>
	</g>
	<g id="flecha-abajo">
		<path d="M0 0h1.9L4 2.1 6.1 0H8L4 4z"/>
	</g>
	<g id="flecha-derecha">
		<path d="M0 8V6.1L2.1 4 0 1.9V0l4 4z"/>
	</g>
	<g id="flecha-izquierda">
		<path d="M4 0v1.9L1.9 4 4 6.1V8L0 4z"/>
	</g>
	<g id="flecha-arriba">
		<polygon class="st0" points="23.2,17.1 19.3,17.1 15,12.9 10.7,17.1 6.8,17.1 15,9.1 "/>
	</g>

<g id="tiempo_10">
 <g>
<path class="st0" d="M1.4,6.4c-0.2,0-0.3,0.1-0.3,0.3C1.1,6.9,1.2,7,1.4,7h1.7c0,0,0.1,0,0.1,0C3.1,6.8,3,6.6,3,6.4H1.4L1.4,6.4z"
		/>
	<path class="st0" d="M3.2,4.1c0,0-0.1,0-0.1,0H0.4c-0.2,0-0.3,0.1-0.3,0.3c0,0.2,0.1,0.3,0.3,0.3H3C3,4.5,3.1,4.3,3.2,4.1L3.2,4.1z
		"/>
	<path class="st0" d="M2.9,5.6c0-0.1,0-0.2,0-0.3h-2c-0.2,0-0.3,0.1-0.3,0.3c0,0.2,0.1,0.3,0.3,0.3h2C2.9,5.8,2.9,5.7,2.9,5.6
		L2.9,5.6z"/>
	<g>
		<g>
			<path class="st1" d="M6.1,6.2V5.6H5.3V5.3L6,3.9h0.4v1.3h0.2v0.4H6.5v0.5H6.1z M6.1,5.3V4.8c0-0.1,0-0.3,0-0.4h0
				C6,4.5,6,4.6,5.9,4.8L5.7,5.2v0H6.1z"/>
			<path class="st1" d="M8,4.3H7.4L7.3,4.7c0,0,0,0,0.1,0c0.1,0,0.3,0,0.4,0.2C8,5,8,5.2,8,5.4c0,0.4-0.3,0.8-0.8,0.8
				c-0.2,0-0.3,0-0.4-0.1l0.1-0.4c0.1,0,0.2,0.1,0.3,0.1c0.2,0,0.4-0.1,0.4-0.4C7.6,5.1,7.4,5,7.1,5C7,5,7,5,6.9,5l0.1-1.1H8V4.3z"
				/>
		</g>
	</g>
	<path class="st0" d="M9.3,3.5c0.1,0.1,0.2,0.1,0.3,0l0.3-0.3c0.1-0.1,0.1-0.2,0-0.3L9.3,2.4C9.2,2.3,9.1,2.3,9,2.4L8.8,2.6
		c-0.1,0.1-0.1,0.2,0,0.3l0,0L8.6,3.1c-0.4-0.4-1-0.6-1.6-0.7V2.1h0.2c0.1,0,0.2-0.1,0.2-0.2V1.4c0-0.1-0.1-0.2-0.2-0.2H6.1
		C6,1.3,6,1.3,6,1.4V2C6,2.1,6,2.1,6.1,2.1h0.2v0.3C5.7,2.5,5.2,2.8,4.8,3.1L4.6,3l0,0c0.1-0.1,0.1-0.2,0-0.3L4.4,2.4
		c-0.1-0.1-0.2-0.1-0.3,0L3.5,3C3.4,3,3.4,3.1,3.5,3.2l0.3,0.3c0.1,0.1,0.2,0.1,0.3,0l0,0l0.2,0.2C3.8,4.2,3.6,4.8,3.6,5.6
		c0,1.7,1.4,3.1,3.1,3.1s3.1-1.4,3.1-3.1c0-0.7-0.3-1.4-0.7-1.9L9.3,3.5L9.3,3.5z M6.7,8C5.3,8,4.3,6.9,4.3,5.6s1.1-2.4,2.4-2.4
		s2.4,1.1,2.4,2.4C9.1,6.9,8,8,6.7,8L6.7,8z"/>
</g>
<g>
	<path class="st1" d="M5.7,6.8c0-0.1,0-0.2,0-0.2h0.2l0,0.1h0C5.9,6.6,6,6.6,6,6.6c0.1,0,0.1,0,0.2,0.1h0c0,0,0-0.1,0.1-0.1
		c0,0,0.1,0,0.1,0c0.1,0,0.2,0.1,0.2,0.3v0.5H6.4V6.9c0-0.1,0-0.2-0.1-0.2c0,0-0.1,0-0.1,0.1c0,0,0,0,0,0.1v0.5H6V6.9
		C6,6.8,6,6.8,6,6.8c0,0-0.1,0-0.1,0.1c0,0,0,0,0,0.1v0.5H5.7V6.8z"/>
	<path class="st1" d="M6.9,6.4c0,0.1,0,0.1-0.1,0.1c-0.1,0-0.1,0-0.1-0.1c0-0.1,0-0.1,0.1-0.1C6.9,6.3,6.9,6.3,6.9,6.4z M6.7,7.4
		V6.6h0.2v0.8H6.7z"/>
	<path class="st1" d="M7.1,6.8c0-0.1,0-0.2,0-0.2h0.2l0,0.1h0c0-0.1,0.1-0.1,0.2-0.1c0.1,0,0.2,0.1,0.2,0.3v0.5H7.4V6.9
		c0-0.1,0-0.1-0.1-0.1c0,0-0.1,0-0.1,0.1c0,0,0,0,0,0.1v0.5H7.1V6.8z"/>
 </g>
</g> 
	
		
	<g id="auto_logo">
		<path d="M9.5 13.6c-.3 0-.7-.2-.8-.5l-1.2-2.7c-.2-.4 0-1 .4-1.2.4-.2 1 0 1.2.4l.4.8L11 6.9c.2-.5.7-.7 1.2-.5.5.2.7.7.5 1.2l-2.2 5.5c-.3.3-.6.5-1 .5zM19.4.2H.6C.2.2 0 .4 0 .7v.4c0 .3.2.6.6.6h18.9c.3 0 .6-.2.6-.6V.7c-.1-.3-.3-.5-.7-.5zM19.4 18.4H.6c-.3 0-.6.2-.6.6v.4c0 .3.2.6.6.6h18.9c.3 0 .6-.2.6-.6V19c-.1-.4-.3-.6-.7-.6z"/>
		<path d="M19.4 3.8H.6c-.4 0-.6.2-.6.6v.4c0 .2.2.5.6.5H6c-.7.6-1.3 1.3-1.6 2.1H.7c-.4 0-.7.4-.7.8s.3.7.7.7h3.2c-.1.4-.1.7-.1 1.1s0 .7.1 1.1H.7c-.4 0-.7.3-.7.7s.3.7.7.7h3.6c.4.8 1 1.6 1.7 2.2H.6c-.4 0-.6.3-.6.6v.4c0 .3.2.6.6.6h18.9c.3 0 .6-.2.6-.6v-.4c0-.3-.2-.6-.6-.6H14c.7-.6 1.3-1.3 1.7-2.2h3.6c.4 0 .7-.3.7-.7s-.3-.7-.7-.7h-3.2c.1-.4.1-.7.1-1.1s0-.7-.1-1.1h3.2c.4 0 .7-.3.7-.7 0-.4-.3-.7-.7-.7h-3.6c-.4-.8-1-1.6-1.7-2.2h5.5c.3 0 .5-.3.5-.6v-.3c0-.4-.2-.6-.6-.6zm-5.2 4.1l.3.6c.2.5.3 1 .3 1.5s-.1 1-.3 1.5l-.3.6c-.7 1.5-2.2 2.5-4 2.6h-.5c-1.7-.1-3.2-1.1-4-2.6l-.3-.6c-.2-.5-.3-1-.3-1.5s.1-1 .3-1.5l.3-.6c.7-1.5 2.2-2.5 4-2.6h.5c1.8.1 3.3 1.1 4 2.6z"/>
	</g>
	<g id="icono_materiais">
		<path class="st16" d="M15.7,20.8H3.3c-1.7,0-3-1.4-3-3V3.2c0-1.7,1.4-3,3-3h12.3c1.7,0,3,1.4,3,3v14.5
					C18.7,19.4,17.3,20.8,15.7,20.8z M3.3,2.2c-0.6,0-1.1,0.5-1.1,1.1v14.5c0,0.6,0.5,1.1,1.1,1.1h12.3c0.6,0,1.1-0.5,1.1-1.1V3.2
					c0-0.6-0.5-1.1-1.1-1.1H3.3z"/>
		<path class="st16" d="M14,6.6H5c-0.5,0-1-0.4-1-1s0.4-1,1-1h9c0.5,0,1,0.4,1,1S14.5,6.6,14,6.6z"/>
		<path class="st16" d="M12.6,11.4H6.4c-0.5,0-1-0.4-1-1s0.4-1,1-1h6.2c0.5,0,1,0.4,1,1S13.2,11.4,12.6,11.4z"/>
		<path class="st16" d="M14,16.4H5c-0.5,0-1-0.4-1-1c0-0.5,0.4-1,1-1h9c0.5,0,1,0.4,1,1C15,15.9,14.5,16.4,14,16.4z"/>
	</g>
	<g id="icono_editar_cadastro">
		<path class="st0" d="M14.5,17.4H5.5c-0.2,0-0.5-0.1-0.6-0.3L0.5,9.3c-0.1-0.2-0.1-0.5,0-0.7L5,0.9c0.1-0.2,0.3-0.3,0.6-0.3h8.9
	c0.2,0,0.5,0.1,0.6,0.3l4.5,7.7c0.1,0.2,0.1,0.5,0,0.7l-4.5,7.7C14.9,17.3,14.7,17.4,14.5,17.4z M5.9,16.1h8.2L18.2,9l-4.1-7.1H5.9
	L1.8,9L5.9,16.1z"/>
    <polygon class="st0" points="12.2,5.2 7.8,5.2 5.6,9 7.8,12.8 12.2,12.8 14.4,9 "/>
	</g>

	<g id="icono_recomendacoes">
		<path d="M17,22.2H2.32A2.53,2.53,0,0,1,0,19.52V7.09A2.53,2.53,0,0,1,2.32,4.41H6.1a1,1,0,1,1,0,2H2.32c-.05,0-.28.21-.28.64V19.52c0,.43.23.64.28.64H17c.05,0,.28-.21.28-.64V13.3a1,1,0,0,1,2,0v6.21A2.53,2.53,0,0,1,17,22.2Z"/>
		<path d="M21,0,18.71,10.74,17.14,7.47c-4,5.83-6.36,8.83-6.39,8.86a1,1,0,0,1-.8.39H9.9a1,1,0,0,1-.81-.48L6.75,12.48A1,1,0,1,1,8.48,11.4L10,13.9c1-1.36,2.88-3.88,5.41-7.57l-3.61-.26Z"/>
	</g>
	<g id="icono-imprimir">
		<path d="M10.4,12.34V10.42h1.14a1.25,1.25,0,0,0,1.25-1.25V4.43a1.25,1.25,0,0,0-1.25-1.25H10.39V.86A.87.87,0,0,0,9.53,0H3.25a.87.87,0,0,0-.86.86V3.18H1.25A1.25,1.25,0,0,0,0,4.43V9.18a1.25,1.25,0,0,0,1.25,1.25H2.38v1.92a.87.87,0,0,0,.86.86H9.53a.87.87,0,0,0,.86-.86ZM3.25.85H9.54V3.18H3.24Zm-2,8.72a.4.4,0,0,1-.39-.39V4.43A.4.4,0,0,1,1.25,4H11.53a.4.4,0,0,1,.39.39V9.18a.4.4,0,0,1-.39.39H10.4V6.8A.43.43,0,0,0,10,6.37H2.82a.43.43,0,0,0-.43.43V9.57Zm2,2.77V7.23h6.3v5.11H3.24Zm0,0"/>
		<path d="M2.32,4.9a.44.44,0,0,0-.6,0,.43.43,0,0,0,.61.61.43.43,0,0,0,.13-.3.45.45,0,0,0-.13-.3Zm0,0"/>
		<path d="M8.23,10.4H4.55a.43.43,0,0,0,0,.86H8.23a.43.43,0,1,0,0-.86Zm0,0"/>
		<path d="M8.23,8.45H4.55a.43.43,0,0,0,0,.86H8.23a.43.43,0,1,0,0-.86Zm0,0"/>
	</g>
	<g id="icono-buscar">
		<path d="M10.51,9.2a5.73,5.73,0,0,0,1.11-3.39,5.81,5.81,0,1,0-5.81,5.81,5.75,5.75,0,0,0,3.39-1.1L13,14.34h2.63Zm-9-3.39a4.35,4.35,0,1,1,4.35,4.35A4.35,4.35,0,0,1,1.46,5.81Z"/>
	</g>
  <g id="fragmento-1">
    <path d="M124.59,101.67,87.3,166.41A174.26,174.26,0,0,1,0,15.32H21.85l0,0,15-15a1,1,0,0,1,1.41,0l15,15,0,0H74.7A99.58,99.58,0,0,0,124.59,101.67Z"/>
  </g>
  <g id="fragmento-2">
    <path d="M110.58,39.49l.08,0,3-11a1,1,0,0,0-.7-1.23l-11-3L88.12,0A174.28,174.28,0,0,0,0,151.56H74.7a99.59,99.59,0,0,1,50.36-86.61Z"/>
  </g>
  <g id="fragmento-3">
    <path d="M168.72,61.79A1,1,0,0,1,168,63L147.5,68.53l-.09-.35L136,88a99.74,99.74,0,0,0-99-.28L0,22.78a174.59,174.59,0,0,1,173.3.48L162.86,41.37l.34-.09Z"/>
  </g>
  <g id="fragmento-4">
    <path d="M37.4,0.2L27.2,17.9c0,0,5.8,20.3,5.4,21c-0.4,0.7-21.3,6.3-21.3,6.3L0.1,65l0.1,0C31,82.8,50,115.8,49.9,151.4l22.5,0
		l15,15c0,0,0,0,0,0c0.4,0.4,1,0.4,1.4,0l15-15l20.7,0c0.1-62.3-33-120-87-151.2L37.4,0.2z"/>
  </g>
  <g id="fragmento-5">
    <path d="M124.08,0a174.27,174.27,0,0,1-86.4,150.57L27,132.25l-.07.25L6.41,127a1,1,0,0,1-.7-1.23l5.52-20.44L0,86.05A99.58,99.58,0,0,0,49.38,0Z"/>
  </g>
  <g id="fragmento-6">
    <path d="M175,64.52A173.53,173.53,0,0,1,87,88.29,173.49,173.49,0,0,1,0,65L11.08,45.81l-.24.06L5.32,25.36A1,1,0,0,1,6,24.14l20.51-5.52.06.23L37.29.3A99.2,99.2,0,0,0,87,13.59,99.17,99.17,0,0,0,137.29,0Z"/>
  </g>
  <g id="boton-reproducir">
    <path d="M40.2 46.06H5.86A5.87 5.87 0 0 1 0 40.2V5.86A5.87 5.87 0 0 1 5.86 0H40.2a5.87 5.87 0 0 1 5.86 5.86V40.2a5.87 5.87 0 0 1-5.86 5.86zM5.86 1.72a4.15 4.15 0 0 0-4.14 4.14V40.2a4.15 4.15 0 0 0 4.14 4.14H40.2a4.15 4.15 0 0 0 4.14-4.14V5.86a4.15 4.15 0 0 0-4.14-4.14z" fill="#d4155b"/><rect x="2.62" y="2.62" width="40.81" height="40.81" rx="5" ry="5" opacity=".6"/><path fill="#d4155b" d="M17.86 36.8v-6.49l7.28-7.28-7.28-7.28V9.26l13.77 13.77L17.86 36.8"/>
  </g>
  <g id="icono-balon">
    <path d="M27 1h-.2c-1-.2-2-.4-3-.4-7.3 0-13.2 5.9-13.2 13.2 0 7.3 5.9 13.2 13.2 13.2C31 27 37 21.1 37 13.8 37 7.6 32.7 2.4 27 1zm-5.9 24l.5-.5c.2-.2.3-.4.3-.6 0-.2-.1-.5-.3-.6l-3-2.7c-.1-.1-.3-.2-.5-.2l-4-.5H14c-.6-1-1.1-2.1-1.4-3.3l1.1-.1c.4 0 .7-.3.8-.6l1.3-4c.1-.2.1-.4 0-.5l-1.3-4c0-.1-.1-.1-.1-.2 1.2-1.6 2.7-2.9 4.5-3.8v.1c.1.2.4.4.6.5l4 1.3h.6L28 4c.3-.1.5-.3.6-.6 1.9.9 3.5 2.2 4.6 3.9v.1l-1.3 4c-.1.2-.1.4 0 .5l1.3 4c.1.3.4.5.7.6l1.1.2c-.3 1.1-.7 2.2-1.3 3.2h-.1l-4 .5c-.2 0-.3.1-.5.2l-3 2.7c-.2.2-.3.4-.3.6 0 .2.1.5.3.6l.5.5c-.8.2-1.7.3-2.6.3-1.1 0-2-.1-2.9-.3z"/><path d="M27.4 17.1l1.7-5.3c.1-.4 0-.7-.3-1l-4.5-3.3c-.3-.2-.7-.2-1 0l-4.5 3.3c-.3.2-.4.6-.3 1l1.7 5.3c.1.4.4.6.8.6h5.6c.3 0 .7-.2.8-.6z"/><path d="M9.6 24.2l-6.9 6.9c-.4.4-1 .4-1.4 0-.4-.4-.4-1 0-1.4l6.9-6.9c.4-.4 1-.4 1.4 0 .4.4.4 1 0 1.4zM15.6 30.2l-6.9 6.9c-.4.4-1 .4-1.4 0-.4-.4-.4-1 0-1.4l6.9-6.9c.4-.4 1-.4 1.4 0 .4.4.4 1 0 1.4zM12.6 27.2l-9.9 9.9c-.4.4-1 .4-1.4 0-.4-.4-.4-1 0-1.4l9.9-9.9c.4-.4 1-.4 1.4 0 .4.4.4 1 0 1.4z"/>
  </g>
  <g id="icono-plano">
    <path d="M14.7 18.6h-4c-.8 0-1.4-.6-1.4-1.4 0-.8.6-1.4 1.4-1.4h3.1l3-6.2c.2-.6.7-.9 1.2-.9s1 .2 1.3.6l2.4 3.2 6.1-11.3c.4-.7 1.2-1 1.9-.6s1 1.2.6 1.9l-7.1 13.2c-.2.4-.7.7-1.2.7s-1-.2-1.2-.6l-2.3-3.1-2.5 5.1c-.3.4-.8.8-1.3.8zM31.7 25.5H10.8c-.8 0-1.4-.6-1.4-1.4 0-.8.6-1.4 1.4-1.4h20.9c.8 0 1.4.6 1.4 1.4.1.8-.6 1.4-1.4 1.4zM3.8 11.3H2.3c-.8 0-1.4-.6-1.4-1.4s.6-1.4 1.4-1.4h1.5c.8 0 1.4.6 1.4 1.4s-.6 1.4-1.4 1.4zM12.2 11.3h-1.5c-.8 0-1.4-.6-1.4-1.4s.6-1.4 1.4-1.4h1.5c.8 0 1.4.6 1.4 1.4s-.6 1.4-1.4 1.4zM31.7 11.3h-1.5c-.8 0-1.4-.6-1.4-1.4s.6-1.4 1.4-1.4h1.5c.8 0 1.4.6 1.4 1.4s-.6 1.4-1.4 1.4zM31.7 18.6h-5.1c-.8 0-1.4-.6-1.4-1.4 0-.8.6-1.4 1.4-1.4h5.1c.8 0 1.4.6 1.4 1.4.1.7-.6 1.4-1.4 1.4zM3.8 18.3H2.3c-.8 0-1.4-.6-1.4-1.4 0-.8.6-1.4 1.4-1.4h1.5c.8 0 1.4.6 1.4 1.4.1.8-.6 1.4-1.4 1.4zM3.8 25.5H2.3c-.8 0-1.4-.6-1.4-1.4 0-.8.6-1.4 1.4-1.4h1.5c.8 0 1.4.6 1.4 1.4.1.8-.6 1.4-1.4 1.4z"/>
  </g>
  <g id="icono-monitoreo">
    <path d="M24.1,4.7c-0.4,0-0.7,0.2-0.8,0.5l-0.8,2.5l-1.9-6.2C20.4,1.2,20.1,1,19.8,1c0,0,0,0,0,0
			c-0.3,0-0.7,0.2-0.8,0.5l-1.8,4.7l-0.6-1c-0.1-0.3-0.4-0.4-0.7-0.4h-3.7c-0.3,0-0.6,0.2-0.8,0.5l-0.8,2.5L8.7,1.5
			C8.5,1.2,8.3,1,7.9,1C7.6,1,7.3,1.2,7.2,1.5L5.4,6.2l-0.6-1C4.7,4.9,4.4,4.7,4.1,4.7H0.5v1.6h3.1l1.2,2.2c0.1,0.3,0.4,0.4,0.7,0.4
			c0.3,0,0.6-0.2,0.7-0.5l1.6-4.2l2,6.3c0.1,0.3,0.4,0.5,0.7,0.5c0.3,0,0.7-0.2,0.8-0.5l1.5-4.3h2.7l1.2,2.2
			c0.1,0.3,0.4,0.4,0.7,0.4c0.3,0,0.6-0.2,0.7-0.5l1.6-4.2l2,6.3c0.1,0.3,0.4,0.5,0.7,0.5c0.4,0,0.7-0.2,0.8-0.5l1.5-4.2h2.9V4.7
			H24.1z"/>
  </g>
  <g id="icono-aprobado">
    <style type="text/css">
    	.fondo-svg{fill:#1EC2B6;}
    	.numero-svg{fill:#FFFFFF;}
    </style>
    <path class="fondo-svg" d="M25,26H1c-0.6,0-1-0.4-1-1V1c0-0.6,0.4-1,1-1l24,0c0.6,0,1,0.4,1,1v24C26,25.6,25.6,26,25,26z"/>
    <path class="numero-svg" d="M6.5,14.2c0-2.5,4.1,2.7,5.1,1.6s6.2-10,7.2-10c1,0,1,1.1,0,3.3c-1,2.2-6.2,11.1-7.2,11.1S6.5,15.3,6.5,14.2z"
    	/>
  </g>
  <g id="icono-rechazado">
    <style type="text/css">
    	.fondo-svg{fill:#D4155B;}
    	.numero-svg{fill:#FFFFFF;}
    </style>
    <path class="fondo-svg" d="M25,26H1c-0.6,0-1-0.4-1-1V1c0-0.6,0.4-1,1-1l24,0c0.6,0,1,0.4,1,1v24C26,25.6,25.6,26,25,26z"/>
    <path class="numero-svg" d="M18.9,18c-0.2,1-3,0.2-4.1-0.8c-0.3-0.3-1-1-2-2c-1.9,2.2-3.7,4.2-4.2,4.2c-1-0.1-0.5-3,0.4-4.1
    	c0.2-0.3,0.9-1.2,1.8-2.2c-2-2.1-3.9-4.4-3.8-4.9c0.2-1,1.2-0.8,3.1,0.6c0.5,0.4,1.4,1.2,2.5,2.2c2-2.2,4.1-4.4,4.6-4.3
    	c1,0.1,0.9,1.2-0.3,3.1c-0.4,0.6-1.3,1.8-2.3,3.1C16.9,15.1,19,17.4,18.9,18z"/>
  </g>
  <g id="icono-cerrar">
    <polygon points="10.01 0 7.65 0 5.08 3.2 5 3.11 4.93 3.2 2.36 0 0 0 3.75 4.66 0 9.32 2.36 9.32 4.93 6.13 5 6.21 5.08 6.13 7.65 9.32 10.01 9.32 6.26 4.66 10.01 0" fill="#2e3090"/>
  </g>
  <g id="icono-actualizar">
    <path d="M17.63,7.72,14.71,3.55,10.54,6.46l1.67.3,1.23-.86a3.11,3.11,0,0,1-6.14.62l-1.45.34a4.6,4.6,0,0,0,9.08-.91l1,1.48Z" fill="#3e5d92"/><path d="M6.13.12A4.63,4.63,0,0,0,2.59,4.35l-1-1.58L0,2.37,2.62,6.68,6.93,4.06,5.3,3.66l-1.22.74A3.11,3.11,0,0,1,10.2,3.9l1.45-.34A4.62,4.62,0,0,0,6.13.12Z" fill="#3e5d92"/>
  </g>
  <g id="icono-borrar">
    <path d="M6.09,5C6.92,3.95,7.62,3,7.94,2.5Q9.45.13,8.2,0C7.75,0,6.05,1.71,4.48,3.47c-.85-.8-1.6-1.46-2-1.79Q.26,0,0,1.18c-.09.44,1.44,2.25,3,4C2.33,6,1.78,6.61,1.58,6.88c-.73,1-1.19,3.24-.35,3.33.43,0,1.91-1.57,3.4-3.36C5.36,7.61,6,8.21,6.21,8.44c.88.82,3.11,1.49,3.28.67C9.58,8.66,7.88,6.79,6.09,5Z" fill="#3e5d92"/>
  </g>
  <g id="icono-practicas">
    <path d="M4.4,19.5c-0.2,0-0.4-0.1-0.6-0.2c-0.3-0.2-0.4-0.6-0.4-0.9l1-5.7L0.3,8.6C0,8.4-0.1,8,0,7.7
  		C0.2,7.3,0.5,7.1,0.8,7l5.8-0.8l2.6-5.2c0.3-0.6,1.4-0.6,1.7,0l2.6,5.2L19.2,7c0.4,0.1,0.6,0.3,0.8,0.6c0.1,0.3,0,0.7-0.2,1
  		l-4.2,4.1l1,5.7c0.1,0.4-0.1,0.7-0.4,0.9c-0.3,0.2-0.7,0.2-1,0.1L10,16.7l-5.2,2.7C4.7,19.5,4.6,19.5,4.4,19.5z M10,14.7
  		c0.2,0,0.3,0,0.4,0.1l3.9,2.1l-0.7-4.4c-0.1-0.3,0-0.6,0.3-0.8L17,8.6L12.7,8c-0.3,0-0.6-0.2-0.7-0.5l-2-4l-2,4
  		C7.9,7.7,7.6,7.9,7.3,8L3,8.6l3.2,3.1c0.2,0.2,0.3,0.5,0.3,0.8l-0.7,4.4l3.9-2.1C9.7,14.7,9.8,14.7,10,14.7z"/>
  	<path d="M10.3,7.6l0.8,1.6c0.1,0.1,0.2,0.2,0.3,0.2l1.8,0.3c0.3,0,0.4,0.4,0.2,0.7l-1.3,1.2C12,11.6,12,11.7,12,11.9
  		l0.3,1.8c0.1,0.3-0.3,0.6-0.6,0.4l-1.6-0.8c-0.1-0.1-0.2-0.1-0.4,0L8.2,14c-0.3,0.1-0.6-0.1-0.6-0.4L8,11.9c0-0.1,0-0.3-0.1-0.3
  		l-1.3-1.2c-0.2-0.2-0.1-0.6,0.2-0.7l1.8-0.3c0.1,0,0.2-0.1,0.3-0.2l0.8-1.6C9.8,7.3,10.2,7.3,10.3,7.6z"/>
  </g>
  <g id="boton-actualizar">
    <svg xmlns="http://www.w3.org/2000/svg" viewBox="0 0 24.4 24.4"><title>Asset 3</title><circle cx="12.2" cy="12.2" r="11.7" fill="#fff" stroke="#d5f3ff" stroke-miterlimit="10"/><path d="M20.8,15,18,11l-4,2.77,1.59.28,1.17-.82a3,3,0,0,1-5.83.59l-1.38.32a4.37,4.37,0,0,0,8.62-.87l1,1.4Z" fill="#3e5d92"/><path d="M9.87,7.78a4.4,4.4,0,0,0-3.36,4L5.6,10.3,4,9.93,6.54,14l4.1-2.49-1.55-.38-1.16.71a3,3,0,0,1,5.82-.48l1.38-.32A4.39,4.39,0,0,0,9.87,7.78Z" fill="#3e5d92"/></svg>
  </g>
  <g id="boton-mover">
    <svg xmlns="http://www.w3.org/2000/svg" viewBox="0 0 23.97 23.97"><title>Asset 6</title><circle cx="11.99" cy="11.99" r="11.49" fill="none" stroke="#d5f3ff" stroke-miterlimit="10"/><path d="M18.11,11.53l-.27-.3c-.34-.38-.64-.68-.81-.84-.6-.55-.95-.65-1-.3a3.94,3.94,0,0,0,.83,1.37,40.86,40.86,0,0,0-4.14-.13c0-1.23-.06-2.31-.1-2.84s-.07-.74-.12-1l.21.2c.38.35,1.36.63,1.43.27,0-.18-.61-.88-1.34-1.59L12.43,6a.62.62,0,0,0-.84,0l-.3.27c-.38.34-.68.64-.84.81-.55.6-.65.95-.3,1a4.37,4.37,0,0,0,1.48-.91c-.12.87-.19,2.52-.23,4.1-1.27,0-2.4.07-2.94.11-.32,0-.59.06-.83.1l.1-.11c.35-.38.63-1.36.27-1.43-.18,0-.88.61-1.59,1.34l-.31.32a.62.62,0,0,0,0,.84l.27.3c.34.38.64.68.81.84.6.55.95.65,1,.3a4.27,4.27,0,0,0-.89-1.46c.91.13,2.52.2,4,.24,0,1.1,0,2,0,2.32a5.63,5.63,0,0,0,.28,1.47l-.13-.12c-.38-.35-1.36-.63-1.43-.27,0,.18.61.88,1.34,1.59l.32.31a.62.62,0,0,0,.84,0l.3-.27c.38-.34.68-.64.84-.81.55-.6.65-.95.3-1a4.27,4.27,0,0,0-1.45.89c.09-.89.12-2.47.12-4,1.11,0,2,0,2.35,0a5.29,5.29,0,0,0,1.6-.35l-.16.17C16.12,13,15.85,14,16.2,14c.18,0,.88-.61,1.59-1.34l.31-.32A.62.62,0,0,0,18.11,11.53Z" fill="#3e5d92"/></svg>
  </g>
  <g id="boton-ver">
    <svg xmlns="http://www.w3.org/2000/svg" viewBox="0 0 23.97 23.97"><title>Asset 5</title><circle cx="11.99" cy="11.99" r="11.49" fill="none" stroke="#d5f3ff" stroke-miterlimit="10"/><path d="M18.28,11.59a.69.69,0,0,1,0,.93c-.91,1-3.29,3.33-6.09,3.33S7,13.53,6.1,12.51a.69.69,0,0,1,0-.93c.91-1,3.29-3.33,6.09-3.33S17.37,10.57,18.28,11.59Z" fill="none" stroke="#3e5d92" stroke-miterlimit="10"/><circle cx="12.14" cy="12.02" r="2.02" fill="#3e5d92"/></svg>
  </g>
  <g id="boton-eliminar">
    <svg xmlns="http://www.w3.org/2000/svg" viewBox="0 0 23.97 23.97"><title>Asset 4</title><circle cx="11.99" cy="11.99" r="11.49" fill="none" stroke="#d5f3ff" stroke-miterlimit="10"/><path d="M13.38,11.94c.69-.88,1.26-1.67,1.53-2.08q1.25-1.95.22-2.06c-.37,0-1.77,1.41-3.07,2.86-.7-.66-1.32-1.21-1.66-1.47q-1.82-1.43-2-.42c-.07.36,1.19,1.85,2.49,3.26-.57.67-1,1.21-1.19,1.43-.6.79-1,2.67-.29,2.74.35,0,1.58-1.29,2.8-2.77.61.63,1.11,1.13,1.3,1.31.72.68,2.57,1.23,2.7.55C16.26,14.94,14.86,13.4,13.38,11.94Z" fill="#3e5d92"/></svg>
  </g>
 <g id="icono-recursos">
    <path d="M53.4,39.3c-0.4-0.8-1.4-1.1-2.2-0.7l-8.9,4.6c-3.7-3.6-8.5-5.7-13.7-6V18.9l20.2-6.6c0.7-0.2,1.1-0.8,1.1-1.5
    	s-0.5-1.3-1.1-1.5L28.6,2.5V1.6C28.6,0.7,27.9,0,27,0c-0.9,0-1.6,0.7-1.6,1.6v35.5c-5.1,0.4-9.9,2.5-13.7,6l-8.9-4.6
    	C2,38.2,1,38.5,0.6,39.3c-0.4,0.8-0.1,1.8,0.7,2.2l25,12.8c0.2,0.1,0.5,0.2,0.7,0.2s0.5-0.1,0.7-0.2l25-12.8
    	C53.5,41.1,53.8,40.1,53.4,39.3z M43.2,10.7l-14.5,4.8V6L43.2,10.7z M27,51l-12.2-6.2c3-2.5,6.7-4,10.6-4.4v6.4
    	c0,0.9,0.7,1.6,1.6,1.6c0.9,0,1.6-0.7,1.6-1.6v-6.4c3.9,0.3,7.6,1.8,10.6,4.4L27,51z"/>
  </g>
	</defs>
</svg>
